{
    "$schema": "http://json-schema.org/draft-07/schema#",
    "title": "User",
    "type": "object",
    "required": [
        "uuid",
        "token",
        "email",
        "phone",
        "name"
    ],
    "properties": {
        "uuid": {
            "$ref": "uuid.json"
        },
        "token": {
            "$ref": "user_token.json"
        },
        "email": {
            "title": "email",
            "description": "User email",
            "type": "string",
            "format": "string",
            "examples": [
                "email@email.com"
            ]
        },
        "phone": {
            "title": "phone",
            "description": "Users phone",
            "type": "string",
            "maxLength": 255,
            "examples": [
                "+79111111111"
            ]
        },
        "name": {
            "title": "name",
            "description": "Users name",
            "type": "string",
            "maxLength": 255,
            "examples": [
                "Ivan",
                "Elena"
            ]
        }
    },
    "additionalProperties": false
}
