{
    "$schema": "http://json-schema.org/draft-07/schema#",
    "type": "object",
    "required": [
        "event_id"
    ],
    "properties": {
        "event_id": {
            "title": "event_id",
            "description": "Event id",
            "type": "integer",
            "format": "integer",
            "examples": [
                1
            ]
        }
    },
    "additionalProperties": false
}

